{"success":true,"pgs":[{"address":{"street":"Undri","city":"Pune","state":"Maharashtra","zipCode":"411028"},"location":{"type":"Point","coordinates":[73.92,18.47]},"amenities":{"wifi":true,"ac":true,"attachedBathroom":true,"studyTable":false,"wardrobe":true,"kitchenAccess":true,"washingMachine":true,"parking":true,"cctv":true,"powerBackup":true},"rules":{"checkInTime":"18:00","checkOutTime":"09:00"},"_id":"699a842b81b5821dba49f111","owner":{"_id":"6999b0150d3add02308b4ed5","fullName":"Owner One","email":"owner@apnapg.com","phone":"9999999999"},"price":700,"name":"Peaceful Stay PG - Undri","description":"Single AC rooms with food included, suitable for working professionals.","nearbyCollege":[],"nearbySchool":[],"nearbyOffice":[],"nearbyMess":["Canteen Plus"],"hasMess":true,"genderAllowed":"Mixed","ownerPhone":"9999999999","ownerEmail":"owner@apnapg.com","images":["https://images.unsplash.com/photo-1618221195710-dd6b41faaea6?w=1200&q=80","https://images.unsplash.com/photo-1493809842364-78817add7ffb?w=1200&q=80","https://images.unsplash.com/photo-1584622650111-993a426fbf0a?w=1200&q=80"],"thumbnail":"https://images.unsplash.com/photo-1618221195710-dd6b41faaea6?w=800&q=60","isVerified":true,"averageRating":0,"reviewCount":0,"isActive":true,"isBlocked":false,"rooms":[],"minPrice":560,"maxPrice":1050,"allowsDailyStay":true,"allowsMonthlyStay":true,"securityDepositPercentage":0,"refundableDays":7,"createdAt":"2026-02-22T04:20:59.864Z","updatedAt":"2026-02-22T04:20:59.864Z","__v":0},{"address":{"street":"Katraj-Kondhwa Road","city":"Pune","state":"Maharashtra","zipCode":"411046"},"location":{"type":"Point","coordinates":[73.87,18.48]},"amenities":{"wifi":true,"ac":false,"attachedBathroom":true,"studyTable":true,"wardrobe":true,"kitchenAccess":true,"washingMachine":false,"parking":false,"cctv":false,"powerBackup":false},"rules":{"checkInTime":"18:00","checkOutTime":"09:00"},"_id":"699a842b81b5821dba49f10f","owner":{"_id":"6999b0150d3add02308b4ed5","fullName":"Owner One","email":"owner@apnapg.com","phone":"9999999999"},"price":450,"name":"Student Nest PG - Katraj-Kondhwa Road","description":"Triple sharing economical PG for students with veg and non-veg options.","nearbyCollege":[],"nearbySchool":[],"nearbyOffice":[],"nearbyMess":["Student Mess"],"hasMess":true,"genderAllowed":"Boys","ownerPhone":"9999999999","ownerEmail":"owner@apnapg.com","images":["https://images.unsplash.com/photo-1505693416388-ac5ce068fe85?w=1200&q=80","https://images.unsplash.com/photo-1560207538-ea4829caf0f?w=1200&q=80","https://images.unsplash.com/photo-1522708323590-d24dbb6b0267?w=1200&q=80"],"thumbnail":"https://images.unsplash.com/photo-1505693416388-ac5ce068fe85?w=800&q=60","isVerified":true,"averageRating":0,"reviewCount":0,"isActive":true,"isBlocked":false,"rooms":[],"minPrice":360,"maxPrice":680,"allowsDailyStay":true,"allowsMonthlyStay":true,"securityDepositPercentage":0,"refundableDays":7,"createdAt":"2026-02-22T04:20:59.862Z","updatedAt":"2026-02-22T04:20:59.862Z","__v":0},{"address":{"street":"Kondhwa Budruk","city":"Pune","state":"Maharashtra","zipCode":"411048"},"location":{"type":"Point","coordinates":[73.91,18.45]},"amenities":{"wifi":true,"ac":false,"attachedBathroom":true,"studyTable":false,"wardrobe":true,"kitchenAccess":false,"washingMachine":false,"parking":true,"cctv":false,"powerBackup":false},"rules":{"checkInTime":"18:00","checkOutTime":"09:00"},"_id":"699a842b81b5821dba49f10d","owner":{"_id":"6999b0150d3add02308b4ed5","fullName":"Owner One","email":"owner@apnapg.com","phone":"9999999999"},"price":600,"name":"Home Comfort PG - Kondhwa Budruk","description":"Private single rooms, WiFi and attached bathrooms. Food not included.","nearbyCollege":[],"nearbySchool":[],"nearbyOffice":[],"nearbyMess":[],"hasMess":false,"genderAllowed":"Mixed","ownerPhone":"9999999999","ownerEmail":"owner@apnapg.com","images":["https://images.unsplash.com/photo-1586023492125-27b2c045efd7?w=1200&q=80","https://images.unsplash.com/photo-1502672260266-1c1ef2d93688?w=1200&q=80","https://images.unsplash.com/photo-1522708323590-d24dbb6b0267?w=1200&q=80"],"thumbnail":"https://images.unsplash.com/photo-1586023492125-27b2c045efd7?w=800&q=60","isVerified":true,"averageRating":0,"reviewCount":0,"isActive":true,"isBlocked":false,"rooms":[],"minPrice":480,"maxPrice":900,"allowsDailyStay":true,"allowsMonthlyStay":true,"securityDepositPercentage":0,"refundableDays":7,"createdAt":"2026-02-22T04:20:59.860Z","updatedAt":"2026-02-22T04:20:59.860Z","__v":0},{"address":{"street":"Yewalewadi","city":"Pune","state":"Maharashtra","zipCode":"411041"},"location":{"type":"Point","coordinates":[73.82,18.55]},"amenities":{"wifi":true,"ac":false,"attachedBathroom":true,"studyTable":true,"wardrobe":true,"kitchenAccess":false,"washingMachine":false,"parking":false,"cctv":true,"powerBackup":false},"rules":{"checkInTime":"18:00","checkOutTime":"09:00"},"_id":"699a842b81b5821dba49f10b","owner":{"_id":"6999b0150d3add02308b4ed5","fullName":"Owner One","email":"owner@apnapg.com","phone":"9999999999"},"price":500,"name":"Comfort Stay PG - Yewalewadi","description":"Comfort Stay PG with double sharing rooms and veg food available.","nearbyCollege":[],"nearbySchool":[],"nearbyOffice":[],"nearbyMess":["Local Veg Tiffin"],"hasMess":true,"genderAllowed":"Mixed","ownerPhone":"9999999999","ownerEmail":"owner@apnapg.com","images":["https://images.unsplash.com/photo-1560448204-e02f11c3d0e2?w=1200&q=80","https://images.unsplash.com/photo-1493809842364-78817add7ffb?w=1200&q=80","https://images.unsplash.com/photo-1584622650111-993a426fbf0a?w=1200&q=80"],"thumbnail":"https://images.unsplash.com/photo-1560448204-e02f11c3d0e2?w=800&q=60","isVerified":true,"averageRating":0,"reviewCount":0,"isActive":true,"isBlocked":false,"rooms":[],"minPrice":400,"maxPrice":750,"allowsDailyStay":true,"allowsMonthlyStay":true,"securityDepositPercentage":0,"refundableDays":7,"createdAt":"2026-02-22T04:20:59.858Z","updatedAt":"2026-02-22T04:20:59.858Z","__v":0},{"address":{"street":"Viman Nagar","city":"Pune","state":"Maharashtra","zipCode":"411014"},"location":{"type":"Point","coordinates":[73.92,18.57]},"amenities":{"wifi":true,"ac":true,"attachedBathroom":true,"studyTable":true,"wardrobe":true,"kitchenAccess":true,"washingMachine":true,"parking":true,"cctv":true,"powerBackup":true},"rules":{"checkInTime":"18:00","checkOutTime":"09:00"},"_id":"699a842b81b5821dba49f109","owner":{"_id":"6999b0150d3add02308b4ed5","fullName":"Owner One","email":"owner@apnapg.com","phone":"9999999999"},"price":899,"name":"Urban Living PG - Viman Nagar","description":"Modern PG suitable for working professionals with monthly and daily booking options.","nearbyCollege":[],"nearbySchool":[],"nearbyOffice":[],"nearbyMess":[],"hasMess":false,"genderAllowed":"Mixed","ownerPhone":"9999999999","ownerEmail":"owner@apnapg.com","images":["https://images.unsplash.com/photo-1493809842364-78817add7ffb?w=1200&q=80","https://images.unsplash.com/photo-1560448204-e02f11c3d0e2?w=1200&q=80","https://images.unsplash.com/photo-1505691938895-1758d7feb511?w=1200&q=80","https://images.unsplash.com/photo-1586023492125-27b2c045efd7?w=1200&q=80"],"thumbnail":"https://images.unsplash.com/photo-1493809842364-78817add7ffb?w=800&q=60","isVerified":true,"averageRating":0,"reviewCount":0,"isActive":true,"isBlocked":false,"rooms":[],"minPrice":470,"maxPrice":900,"allowsDailyStay":true,"allowsMonthlyStay":true,"securityDepositPercentage":0,"refundableDays":7,"createdAt":"2026-02-22T04:20:59.857Z","updatedAt":"2026-02-22T04:20:59.857Z","__v":0},{"address":{"street":"Wanowrie","city":"Pune","state":"Maharashtra","zipCode":"411040"},"location":{"type":"Point","coordinates":[73.95,18.49]},"amenities":{"wifi":true,"ac":false,"attachedBathroom":false,"studyTable":true,"wardrobe":true,"kitchenAccess":true,"washingMachine":false,"parking":false,"cctv":true,"powerBackup":false},"rules":{"checkInTime":"18:00","checkOutTime":"09:00"},"_id":"699a842b81b5821dba49f107","owner":{"_id":"6999b0150d3add02308b4ed5","fullName":"Owner One","email":"owner@apnapg.com","phone":"9999999999"},"price":399,"name":"Sunflower Girls PG - Wanowrie","description":"Affordable girls PG with clean rooms and attentive staff.","nearbyCollege":[],"nearbySchool":[],"nearbyOffice":[],"nearbyMess":["Sun Mess"],"hasMess":true,"genderAllowed":"Girls","ownerPhone":"9999999999","ownerEmail":"owner@apnapg.com","images":["https://images.unsplash.com/photo-1522708323590-d24dbb6b0267?w=1200&q=80","https://images.unsplash.com/photo-1505691723518-36a0f4a4a6a0?w=1200&q=80","https://images.unsplash.com/photo-1560207538-ea4829caf0f?w=1200&q=80","https://images.unsplash.com/photo-1493809842364-78817add7ffb?w=1200&q=80"],"thumbnail":"https://images.unsplash.com/photo-1522708323590-d24dbb6b0267?w=800&q=60","isVerified":true,"averageRating":0,"reviewCount":0,"isActive":true,"isBlocked":false,"rooms":[],"minPrice":230,"maxPrice":450,"allowsDailyStay":true,"allowsMonthlyStay":true,"securityDepositPercentage":0,"refundableDays":7,"createdAt":"2026-02-22T04:20:59.855Z","updatedAt":"2026-02-22T04:20:59.855Z","__v":0},{"address":{"street":"Aundh","city":"Pune","state":"Maharashtra","zipCode":"411007"},"location":{"type":"Point","coordinates":[73.8,18.566]},"amenities":{"wifi":true,"ac":true,"attachedBathroom":true,"studyTable":true,"wardrobe":true,"kitchenAccess":true,"washingMachine":true,"parking":false,"cctv":true,"powerBackup":true},"rules":{"checkInTime":"18:00","checkOutTime":"09:00"},"_id":"699a842b81b5821dba49f105","owner":{"_id":"6999b0150d3add02308b4ed5","fullName":"Owner One","email":"owner@apnapg.com","phone":"9999999999"},"price":1199,"name":"Heritage Girls PG - Aundh","description":"Comfortable girls PG near Aundh with meals and laundary service.","nearbyCollege":[],"nearbySchool":[],"nearbyOffice":[],"nearbyMess":["Aundh Mess"],"hasMess":true,"genderAllowed":"Girls","ownerPhone":"9999999999","ownerEmail":"owner@apnapg.com","images":["https://images.unsplash.com/photo-1554995207-c18c203602cb?w=1200&q=80","https://images.unsplash.com/photo-1543087904-3e3a7f3d7a4f?w=1200&q=80","https://images.unsplash.com/photo-1505693416388-ac5ce068fe85?w=1200&q=80","https://images.unsplash.com/photo-1522708323590-d24dbb6b0267?w=1200&q=80"],"thumbnail":"https://images.unsplash.com/photo-1554995207-c18c203602cb?w=800&q=60","isVerified":true,"averageRating":0,"reviewCount":0,"isActive":true,"isBlocked":false,"rooms":[],"minPrice":630,"maxPrice":1200,"allowsDailyStay":false,"allowsMonthlyStay":true,"securityDepositPercentage":0,"refundableDays":7,"createdAt":"2026-02-22T04:20:59.853Z","updatedAt":"2026-02-22T04:20:59.853Z","__v":0},{"address":{"street":"Kothrud","city":"Pune","state":"Maharashtra","zipCode":"411029"},"location":{"type":"Point","coordinates":[73.821,18.506]},"amenities":{"wifi":true,"ac":true,"attachedBathroom":true,"studyTable":true,"wardrobe":true,"kitchenAccess":false,"washingMachine":true,"parking":false,"cctv":true,"powerBackup":true},"rules":{"checkInTime":"18:00","checkOutTime":"09:00"},"_id":"699a842b81b5821dba49f103","owner":{"_id":"6999b0150d3add02308b4ed5","fullName":"Owner One","email":"owner@apnapg.com","phone":"9999999999"},"price":799,"name":"Sakhi Girls PG - Kothrud","description":"Secure girls-only PG with CCTV, WiFi and nutritious meals. Single & double sharing available.","nearbyCollege":[],"nearbySchool":[],"nearbyOffice":[],"nearbyMess":["Sakhi Mess - 140/day"],"hasMess":true,"genderAllowed":"Girls","ownerPhone":"9999999999","ownerEmail":"owner@apnapg.com","images":["https://images.unsplash.com/photo-1542317854-3f4e9d6d8c02?w=1200&q=80","https://images.unsplash.com/photo-1524758631624-e2822e304c36?w=1200&q=80","https://images.unsplash.com/photo-1540518614846-7eded433c457?w=1200&q=80","https://images.unsplash.com/photo-1505693416388-ac5ce068fe85?w=1200&q=80"],"thumbnail":"https://images.unsplash.com/photo-1542317854-3f4e9d6d8c02?w=800&q=60","isVerified":true,"averageRating":0,"reviewCount":0,"isActive":true,"isBlocked":false,"rooms":[],"minPrice":390,"maxPrice":750,"allowsDailyStay":true,"allowsMonthlyStay":true,"securityDepositPercentage":0,"refundableDays":7,"createdAt":"2026-02-22T04:20:59.851Z","updatedAt":"2026-02-22T04:20:59.851Z","__v":0},{"address":{"street":"88 Peak Road","city":"Pune","state":"Maharashtra","zipCode":"411003"},"location":{"type":"Point","coordinates":[73.85,18.53]},"amenities":{"wifi":true,"ac":true,"attachedBathroom":true,"studyTable":true,"wardrobe":true,"kitchenAccess":true,"washingMachine":true,"parking":true,"cctv":true,"powerBackup":true},"rules":{"checkInTime":"18:00","checkOutTime":"09:00"},"_id":"699a842b81b5821dba49f101","owner":{"_id":"6999b0150d3add02308b4ed5","fullName":"Owner One","email":"owner@apnapg.com","phone":"9999999999"},"price":999,"name":"Peak Stay PG","description":"Premium PG with furnished rooms and attached bathrooms.","nearbyCollege":[],"nearbySchool":[],"nearbyOffice":["Business Hub"],"nearbyMess":[],"hasMess":false,"genderAllowed":"Girls","ownerPhone":"9999999999","ownerEmail":"owner@apnapg.com","images":["https://images.unsplash.com/photo-1505691938895-1758d7feb511?w=1200&q=80","https://images.unsplash.com/photo-1522708323590-d24dbb6b0267?w=1200&q=80","https://images.unsplash.com/photo-1570129477492-45ac003ff2e0?w=1200&q=80"],"thumbnail":"https://images.unsplash.com/photo-1505691938895-1758d7feb511?w=800&q=60","isVerified":true,"averageRating":0,"reviewCount":0,"isActive":true,"isBlocked":false,"rooms":[],"minPrice":790,"maxPrice":1500,"allowsDailyStay":true,"allowsMonthlyStay":true,"securityDepositPercentage":0,"refundableDays":7,"createdAt":"2026-02-22T04:20:59.849Z","updatedAt":"2026-02-22T04:20:59.849Z","__v":0},{"address":{"street":"45 Cozy Lane","city":"Pune","state":"Maharashtra","zipCode":"411002"},"location":{"type":"Point","coordinates":[73.858,18.521]},"amenities":{"wifi":true,"ac":false,"attachedBathroom":true,"studyTable":true,"wardrobe":true,"kitchenAccess":true,"washingMachine":false,"parking":true,"cctv":false,"powerBackup":false},"rules":{"checkInTime":"18:00","checkOutTime":"09:00"},"_id":"699a842b81b5821dba49f0ff","owner":{"_id":"6999b0150d3add02308b4ed5","fullName":"Owner One","email":"owner@apnapg.com","phone":"9999999999"},"price":299,"name":"Cozy Corner PG","description":"Economical PG with neat rooms and hot water.","nearbyCollege":["LMN Institute"],"nearbySchool":[],"nearbyOffice":[],"nearbyMess":["Home Tiffins - 100/day"],"hasMess":false,"genderAllowed":"Mixed","ownerPhone":"9999999999","ownerEmail":"owner@apnapg.com","images":["https://images.unsplash.com/photo-1484154218962-a197022b5858?w=1200&q=80","https://images.unsplash.com/photo-1584622650111-993a426fbf0a?w=1200&q=80","https://images.unsplash.com/photo-1522708323590-d24dbb6b0267?w=1200&q=80"],"thumbnail":"https://images.unsplash.com/photo-1484154218962-a197022b5858?w=800&q=60","isVerified":true,"averageRating":0,"reviewCount":0,"isActive":true,"isBlocked":false,"rooms":[],"minPrice":230,"maxPrice":450,"allowsDailyStay":false,"allowsMonthlyStay":true,"securityDepositPercentage":0,"refundableDays":7,"createdAt":"2026-02-22T04:20:59.846Z","updatedAt":"2026-02-22T04:20:59.846Z","__v":0}],"pagination":{"total":11,"page":1,"limit":10,"pages":2}}
